…
    Rows: 11545 Columns: 9
    ── Column specification ────────────────────────────────────────────────────────
    Delimiter: ","
    chr (8): 239200, ...3, ...4, ...5, ...6, ...7, Reviews, ...9
    dbl (1): ...1

    ℹ Use `spec()` to retrieve the full column specification for this data.
    ℹ Specify the column types or set `show_col_types = FALSE` to quiet this message.

``` r
amnesia
```

    # A tibble: 11,545 × 9
        ...1 `239200` ...3                 ...4  ...5     ...6   ...7  Reviews ...9 
       <dbl> <chr>    <chr>                <chr> <chr>    <chr>  <chr> <chr>   <chr>
     1    NA <NA>     <NA>                 <NA>  <NA>     <NA>   <NA>  <NA>    <NA> 
     2    NA <NA>     Reviews by languages <NA>  <NA>     <NA>   <NA>  Positi… Nega…
     3    NA <NA>     <NA>                 Total Positive Negat… Ratio The ga… The …
     4    NA <NA>     Total                11521 8008     3513   70%   The ga… The …
     5    NA <NA>     english              6324  4147     2177   66%   There … The …
     6    NA <NA>     schinese             170   134      36     79%   The ga… Ther…
     7    NA <NA>     russian              1846  1392     454    75%   The st… The …
     8    NA <NA>     koreana              104   66       38     63%   The sa… The …
     9    NA <NA>     german               329   245      84     74%   The gr… The …
    10    NA <NA>     japanese             18    12       6      67%   The ga… The …
    # ℹ 11,535 more rows
…
    Rows: 4594 Columns: 9
    ── Column specification ────────────────────────────────────────────────────────
    Delimiter: ","
    chr (7): 247660, ...3, ...4, ...5, ...7, Reviews, ...9
    dbl (2): ...1, ...6

    ℹ Use `spec()` to retrieve the full column specification for this data.
    ℹ Specify the column types or set `show_col_types = FALSE` to quiet this message.

``` r
deadlyprem
```

    # A tibble: 4,594 × 9
        ...1 `247660` ...3                 ...4  ...5      ...6 ...7  Reviews  ...9 
       <dbl> <chr>    <chr>                <chr> <chr>    <dbl> <chr> <chr>    <chr>
     1    NA <NA>     <NA>                 <NA>  <NA>        NA <NA>  <NA>     <NA> 
     2    NA <NA>     Reviews by languages <NA>  <NA>        NA <NA>  Positiv… Nega…
     3    NA <NA>     <NA>                 Total Positive    NA Ratio The gam… The …
     4    NA <NA>     Total                4570  3026      1544 66%   The gam… The …
     5    NA <NA>     english              2942  1903      1039 65%   There a… The …
     6    NA <NA>     schinese             58    37          21 64%   The gam… Ther…
     7    NA <NA>     russian              579   455        124 79%   The sto… The …
     8    NA <NA>     koreana              11    4            7 36%   The san… The …
     9    NA <NA>     german               127   85          42 67%   The gra… The …
    10    NA <NA>     japanese             13    9            4 69%   The gam… The …
    # ℹ 4,584 more rows
…
    # A tibble: 2 × 1
      review_type
      <chr>      
    1 ✅         
    2 ❌         

``` r
deadlyprem |>
  mutate(review_type =  str_replace_all(review_type, 
                c("✅" = "POS",
                  "❌" = "NEG")))
```

    # A tibble: 2,942 × 9
       review_id language date     review_type purchased score upvotes review engtxt
           <dbl> <chr>    <chr>    <chr>       <chr>     <dbl> <chr>   <chr>  <chr> 
     1 205149678 english  2025.08… POS         ✅        0.524 2       "---{… "---{…
     2 205129562 english  2025.08… NEG         ✅        0.5   0       "I ca… "I ca…
     3 204814161 english  2025.08… NEG         ✅        0.524 1       "It s… "It s…
     4 204749451 english  2025.08… POS         ✅        0.5   1       "I wi… "I wi…
     5 204667995 english  2025.08… NEG         ✅        0.483 0       "I li… "I li…
     6 204591205 english  2025.08… POS         ✅        0.5   0       "I we… "I we…
     7 204510254 english  2025.08… POS         ✅        0.5   0       "I AM… "I AM…
     8 204388121 english  2025.08… POS         ✅        0.5   0       "Damn… "Damn…
     9 204256069 english  2025.08… POS         ✅        0.5   0       "This… "This…
    10 204246481 english  2025.08… NEG         ✅        0.550 5       "Prob… "Prob…
    # ℹ 2,932 more rows
…
    # A tibble: 5 × 8
      game        rank  perc_positive year  total_reviews eng_reviews price steam_id
      <chr>       <chr> <chr>         <chr> <chr>         <chr>       <chr> <chr>   
    1 Kinetic Vo… Over… 17%           2014  1,553         1,346       $10   227160  
    2 Spacebase … Over… 17%           2014  4,313         3,675       $10   246090  
    3 FlatOut 3 … Over… 17%           2011  4,079         1,606       $10   201510  
    4 Command & … Over… 16%           2010  4,711         2,625       $20   47700   
    5 Superpower… Over… 10%           2022  4,713         2,626       $30   1563130 

``` r
allgames <- bind_rows(overpos, verypos, pos, mostlypos, mixed, mostlyneg, neg, veryneg, overneg)
allgames
```

    # A tibble: 45 × 8
       game       rank  perc_positive year  total_reviews eng_reviews price steam_id
       <chr>      <chr> <chr>         <chr> <chr>         <chr>       <chr> <chr>   
     1 Outer wil… Over… 95%           2020  75,534        45,703      $25   753640  
     2 Stardew V… Over… 98%           2016  797,573       363,715     $15   413150  
     3 Hades      Over… 98%           2020  264,668       133,152     $25   1145360 
     4 Chants of… Over… 98%           2023  22,874        10,464      $20   1931770 
     5 The Case … Over… 98%           2022  8,107         5,778       $18   1677770 
     6 Disco Ely… Very… 92%           2019  105,914       52,174      $40   632470  
     7 Superlimi… Very… 94%           2020  25,549        13,202      $20   1049410 
     8 The Stanl… Very… 94%           2022  30,300        22,192      $25   1703340 
     9 Dead Spac… Very… 94%           2011  22,870        10,723      $20   47780   
    10 Night in … Very… 94%           2017  16,570        12,697      $20   481510  
    # ℹ 35 more rows
…
    Rows: 2964 Columns: 9
    ── Column specification ────────────────────────────────────────────────────────
    Delimiter: ","
    chr (8): 1096410, ...3, ...4, ...5, ...6, ...7, Reviews, ...9
    dbl (1): ...1

    ℹ Use `spec()` to retrieve the full column specification for this data.
    ℹ Specify the column types or set `show_col_types = FALSE` to quiet this message.

``` r
games_df
```

    # A tibble: 191,109 × 10
       review_id language date     review_type purchased score upvotes review engtxt
           <int> <chr>    <chr>    <chr>       <chr>     <int>   <int> <chr>  <chr> 
     1 205434212 english  2025.08… ✅          ❌            0       1 "The … "The …
     2 205407336 english  2025.08… ❌          ❌            0       0 "Game… "Game…
     3 205265837 english  2025.08… ❌          ✅            0       0 "So, … "So, …
     4 205236599 english  2025.08… ✅          ❌            0       0 "Eeri… "Eeri…
     5 205099824 english  2025.08… ❌          ❌            0       1 "just… "just…
     6 205035565 english  2025.08… ❌          ✅            0       0 "This… "This…
     7 205004797 english  2025.08… ✅          ✅            0       0 "Abso… "Abso…
     8 204962454 english  2025.08… ✅          ✅            0       0 "Most… "Most…
     9 204909988 english  2025.08… ❌          ❌            0       0 "I en… "I en…
    10 204877346 english  2025.08… ❌          ✅            0       0 "Wish… "Wish…
    # ℹ 191,099 more rows
    # ℹ 1 more variable: steam_id <chr>

Just to verify, here they are! 45 different steam ID numbers for 45
different games. Thanks Dan for all the help!!

``` r
games_df |>
  distinct(steam_id)
```

    # A tibble: 45 × 1
       steam_id
       <chr>   
     1 239200  
     2 1048640 
     3 1308950 
     4 946600  
     5 2607330 
     6 2940020 
     7 246940  
     8 1092660 
     9 300160  
    10 238870  
    # ℹ 35 more rows
…
