…
    Rows: 11545 Columns: 9
    ── Column specification ────────────────────────────────────────────────────────
    Delimiter: ","
    chr (8): 239200, ...3, ...4, ...5, ...6, ...7, Reviews, ...9
    dbl (1): ...1

    ℹ Use `spec()` to retrieve the full column specification for this data.
    ℹ Specify the column types or set `show_col_types = FALSE` to quiet this message.

``` r
amnesia
```

    # A tibble: 11,545 × 9
        ...1 `239200` ...3                 ...4  ...5     ...6   ...7  Reviews ...9 
       <dbl> <chr>    <chr>                <chr> <chr>    <chr>  <chr> <chr>   <chr>
     1    NA <NA>     <NA>                 <NA>  <NA>     <NA>   <NA>  <NA>    <NA> 
     2    NA <NA>     Reviews by languages <NA>  <NA>     <NA>   <NA>  Positi… Nega…
     3    NA <NA>     <NA>                 Total Positive Negat… Ratio The ga… The …
     4    NA <NA>     Total                11521 8008     3513   70%   The ga… The …
     5    NA <NA>     english              6324  4147     2177   66%   There … The …
     6    NA <NA>     schinese             170   134      36     79%   The ga… Ther…
     7    NA <NA>     russian              1846  1392     454    75%   The st… The …
     8    NA <NA>     koreana              104   66       38     63%   The sa… The …
     9    NA <NA>     german               329   245      84     74%   The gr… The …
    10    NA <NA>     japanese             18    12       6      67%   The ga… The …
    # ℹ 11,535 more rows
…
    Rows: 29626 Columns: 9
    ── Column specification ────────────────────────────────────────────────────────
    Delimiter: ","
    chr (7): 1252330, ...3, ...4, ...5, ...6, Reviews, ...9
    dbl (2): ...1, ...7

    ℹ Use `spec()` to retrieve the full column specification for this data.
    ℹ Specify the column types or set `show_col_types = FALSE` to quiet this message.

``` r
deathloop
```

    # A tibble: 29,626 × 9
        ...1 `1252330` ...3                 ...4  ...5     ...6   ...7 Reviews ...9 
       <dbl> <chr>     <chr>                <chr> <chr>    <chr> <dbl> <chr>   <chr>
     1    NA <NA>      <NA>                 <NA>  <NA>     <NA>     NA <NA>    <NA> 
     2    NA <NA>      Reviews by languages <NA>  <NA>     <NA>     NA Positi… Nega…
     3    NA <NA>      <NA>                 Total Positive Nega…    NA The ga… The …
     4    NA <NA>      Total                29602 22574    7028     NA The ga… The …
     5    NA <NA>      english              17351 13110    4241     NA There … The …
     6    NA <NA>      schinese             5281  4009     1272     NA The ga… Ther…
     7    NA <NA>      russian              1928  1535     393      NA The st… The …
     8    NA <NA>      koreana              455   307      148      NA The sa… The …
     9    NA <NA>      german               1029  782      247      NA The gr… The …
    10    NA <NA>      japanese             128   88       40       NA The ga… The …
    # ℹ 29,616 more rows
…
    # A tibble: 2 × 1
      review_type
      <chr>      
    1 ✅         
    2 ❌         

``` r
deathloop |>
  mutate(review_type =  str_replace_all(review_type, 
                c("✅" = "POS",
                  "❌" = "NEG")))
```

    # A tibble: 17,351 × 9
       review_id language date     review_type purchased score upvotes review engtxt
           <dbl> <chr>    <chr>    <chr>       <chr>     <chr>   <dbl> <chr>  <chr> 
     1 205094312 english  2025.08… POS         ❌        0.5         0 "7/10… "7/10…
     2 205000779 english  2025.08… POS         ✅        0.5         0 "It w… "It w…
     3 204904346 english  2025.08… POS         ❌        0.5         0 "this… "this…
     4 204842131 english  2025.08… POS         ✅        50.0%       0 "This… "This…
     5 204675894 english  2025.08… NEG         ❌        0.34…       2 "My g… "My g…
     6 204663628 english  2025.08… NEG         ✅        0.50…       5 "I re… "I re…
     7 204491003 english  2025.08… NEG         ❌        0.34…       2 "Publ… "Publ…
     8 204486791 english  2025.08… POS         ✅        0.39…       0 "这游戏设… "这游戏设…
     9 204483066 english  2025.08… NEG         ✅        0.34…       2 "The … "The …
    10 204479218 english  2025.08… POS         ✅        0.5         0 "well… "well…
    # ℹ 17,341 more rows
…
    # A tibble: 5 × 8
      game        rank  perc_positive year  total_reviews eng_reviews price steam_id
      <chr>       <chr> <chr>         <chr> <chr>         <chr>       <chr> <chr>   
    1 Kinetic Vo… Over… 17%           2014  1,553         1,346       $10   227160  
    2 Spacebase … Over… 17%           2014  4,313         3,675       $10   246090  
    3 FlatOut 3 … Over… 17%           2011  4,079         1,606       $10   201510  
    4 Command & … Over… 16%           2010  4,711         2,625       $20   47700   
    5 Superpower… Over… 10%           2022  4,713         2,626       $30   1563130 

``` r
allgames <- bind_rows(overpos, verypos, pos, mostlypos, mixed, mostlyneg, neg, veryneg, overneg)
allgames
```

    # A tibble: 45 × 8
       game       rank  perc_positive year  total_reviews eng_reviews price steam_id
       <chr>      <chr> <chr>         <chr> <chr>         <chr>       <chr> <chr>   
     1 Outer wil… Over… 95%           2020  75,534        45,703      $25   753640  
     2 Stardew V… Over… 98%           2016  797,573       363,715     $15   413150  
     3 Hades      Over… 98%           2020  264,668       133,152     $25   1145360 
     4 Chants of… Over… 98%           2023  22,874        10,464      $20   1931770 
     5 The Case … Over… 98%           2022  8,107         5,778       $18   1677770 
     6 Disco Ely… Very… 92%           2019  105,914       52,174      $40   632470  
     7 Superlimi… Very… 94%           2020  25,549        13,202      $20   1049410 
     8 The Stanl… Very… 94%           2022  30,300        22,192      $25   1703340 
     9 Dead Spac… Very… 94%           2011  22,870        10,723      $20   47780   
    10 Night in … Very… 94%           2017  16,570        12,697      $20   481510  
    # ℹ 35 more rows
…
numtest
```

    [1] "239200"

``` r
amnesia <- amnesia |>
  mutate(steam_id = numtest)

amnesia
```

    # A tibble: 11,545 × 10
        ...1 `239200` ...3            ...4  ...5  ...6  ...7  Reviews ...9  steam_id
       <dbl> <chr>    <chr>           <chr> <chr> <chr> <chr> <chr>   <chr> <chr>   
     1    NA <NA>     <NA>            <NA>  <NA>  <NA>  <NA>  <NA>    <NA>  239200  
     2    NA <NA>     Reviews by lan… <NA>  <NA>  <NA>  <NA>  Positi… Nega… 239200  
     3    NA <NA>     <NA>            Total Posi… Nega… Ratio The ga… The … 239200  
     4    NA <NA>     Total           11521 8008  3513  70%   The ga… The … 239200  
     5    NA <NA>     english         6324  4147  2177  66%   There … The … 239200  
     6    NA <NA>     schinese        170   134   36    79%   The ga… Ther… 239200  
     7    NA <NA>     russian         1846  1392  454   75%   The st… The … 239200  
     8    NA <NA>     koreana         104   66    38    63%   The sa… The … 239200  
     9    NA <NA>     german          329   245   84    74%   The gr… The … 239200  
    10    NA <NA>     japanese        18    12    6     67%   The ga… The … 239200  
    # ℹ 11,535 more rows
…
    Rows: 433463 Columns: 9
    ── Column specification ────────────────────────────────────────────────────────
    Delimiter: ","
    chr (8): 239200, ...3, ...4, ...5, ...6, ...7, Reviews, ...9
    dbl (1): ...1

    ℹ Use `spec()` to retrieve the full column specification for this data.
    ℹ Specify the column types or set `show_col_types = FALSE` to quiet this message.

``` r
games_df
```

    # A tibble: 210,637 × 10
       review_id language date     review_type purchased score upvotes review engtxt
           <dbl> <chr>    <chr>    <chr>       <chr>     <chr> <chr>   <chr>  <chr> 
     1 205434212 english  2025.08… ✅          ❌        0.51… 1       "The … "The …
     2 205407336 english  2025.08… ❌          ❌        0.5   0       "Game… "Game…
     3 205265837 english  2025.08… ❌          ✅        0.5   0       "So, … "So, …
     4 205236599 english  2025.08… ✅          ❌        0.5   0       "Eeri… "Eeri…
     5 205099824 english  2025.08… ❌          ❌        0.52… 1       "just… "just…
     6 205035565 english  2025.08… ❌          ✅        0.5   0       "This… "This…
     7 205004797 english  2025.08… ✅          ✅        0.47… 0       "Abso… "Abso…
     8 204962454 english  2025.08… ✅          ✅        0.5   0       "Most… "Most…
     9 204909988 english  2025.08… ❌          ❌        0.46… 0       "I en… "I en…
    10 204877346 english  2025.08… ❌          ✅        0.46… 0       "Wish… "Wish…
    # ℹ 210,627 more rows
    # ℹ 1 more variable: steam_id <chr>
…
    ℹ Use `spec()` to retrieve the full column specification for this data.
    ℹ Specify the column types or set `show_col_types = FALSE` to quiet this message.

``` r
steam_id <- colid |> select(2) |> colnames()
colid <- colid |> mutate(steam_id = steam_id)
colid <- colid |>
  rename(review_id = ...1, language = 2, date = ...3, review_type = ...4, purchased = ...5, score = ...6, upvotes = ...7, review = Reviews, engtxt = ...9) |>
  filter(language == 'english')

colid
```

    # A tibble: 6,324 × 10
       review_id language date     review_type purchased score upvotes review engtxt
           <dbl> <chr>    <chr>    <chr>       <chr>     <chr> <chr>   <chr>  <chr> 
     1 205434212 english  2025.08… ✅          ❌        0.51… 1       "The … "The …
     2 205407336 english  2025.08… ❌          ❌        0.5   0       "Game… "Game…
     3 205265837 english  2025.08… ❌          ✅        0.5   0       "So, … "So, …
     4 205236599 english  2025.08… ✅          ❌        0.5   0       "Eeri… "Eeri…
     5 205099824 english  2025.08… ❌          ❌        0.52… 1       "just… "just…
     6 205035565 english  2025.08… ❌          ✅        0.5   0       "This… "This…
     7 205004797 english  2025.08… ✅          ✅        0.47… 0       "Abso… "Abso…
     8 204962454 english  2025.08… ✅          ✅        0.5   0       "Most… "Most…
     9 204909988 english  2025.08… ❌          ❌        0.46… 0       "I en… "I en…
    10 204877346 english  2025.08… ❌          ✅        0.46… 0       "Wish… "Wish…
    # ℹ 6,314 more rows
    # ℹ 1 more variable: steam_id <chr>
…
