…
    Rows: 191109 Columns: 10
    ── Column specification ────────────────────────────────────────────────────────
    Delimiter: ","
    chr (6): language, date, review_type, purchased, review, engtxt
    dbl (4): review_id, score, upvotes, steam_id

    ℹ Use `spec()` to retrieve the full column specification for this data.
    ℹ Specify the column types or set `show_col_types = FALSE` to quiet this message.

``` r
reviews_df
```

    # A tibble: 191,109 × 10
       review_id language date     review_type purchased score upvotes review engtxt
           <dbl> <chr>    <chr>    <chr>       <chr>     <dbl>   <dbl> <chr>  <chr> 
     1 205434212 english  2025.08… ✅          ❌            0       1 "The … "The …
     2 205407336 english  2025.08… ❌          ❌            0       0 "Game… "Game…
     3 205265837 english  2025.08… ❌          ✅            0       0 "So, … "So, …
     4 205236599 english  2025.08… ✅          ❌            0       0 "Eeri… "Eeri…
     5 205099824 english  2025.08… ❌          ❌            0       1 "just… "just…
     6 205035565 english  2025.08… ❌          ✅            0       0 "This… "This…
     7 205004797 english  2025.08… ✅          ✅            0       0 "Abso… "Abso…
     8 204962454 english  2025.08… ✅          ✅            0       0 "Most… "Most…
     9 204909988 english  2025.08… ❌          ❌            0       0 "I en… "I en…
    10 204877346 english  2025.08… ❌          ✅            0       0 "Wish… "Wish…
    # ℹ 191,099 more rows
    # ℹ 1 more variable: steam_id <dbl>

``` r
reviews_df |>
  distinct(steam_id)
```

    # A tibble: 45 × 1
       steam_id
          <dbl>
     1   239200
     2  1048640
     3  1308950
     4   946600
     5  2607330
     6  2940020
     7   246940
     8  1092660
     9   300160
    10   238870
    # ℹ 35 more rows
…
``` r
reviews_df <- reviews_df |>
    mutate(review_type =  str_replace_all(review_type, 
                c("✅" = "POS",
                  "❌" = "NEG")))
```

Fix those pesky emoji columns (I’m going to ditch the “purchased” column
later on, so I didn’t bother)

``` r
reviews_df
```

    # A tibble: 191,109 × 10
       review_id language date     review_type purchased score upvotes review engtxt
           <dbl> <chr>    <chr>    <chr>       <chr>     <dbl>   <dbl> <chr>  <chr> 
     1 205434212 english  2025.08… POS         ❌            0       1 "The … "The …
     2 205407336 english  2025.08… NEG         ❌            0       0 "Game… "Game…
     3 205265837 english  2025.08… NEG         ✅            0       0 "So, … "So, …
     4 205236599 english  2025.08… POS         ❌            0       0 "Eeri… "Eeri…
     5 205099824 english  2025.08… NEG         ❌            0       1 "just… "just…
     6 205035565 english  2025.08… NEG         ✅            0       0 "This… "This…
     7 205004797 english  2025.08… POS         ✅            0       0 "Abso… "Abso…
     8 204962454 english  2025.08… POS         ✅            0       0 "Most… "Most…
     9 204909988 english  2025.08… NEG         ❌            0       0 "I en… "I en…
    10 204877346 english  2025.08… NEG         ✅            0       0 "Wish… "Wish…
    # ℹ 191,099 more rows
    # ℹ 1 more variable: steam_id <dbl>

``` r
diffrows <- reviews_df[reviews_df$review != reviews_df$engtxt, ]
diffrows
```

    # A tibble: 1,117 × 10
       review_id language date     review_type purchased score upvotes review engtxt
           <dbl> <chr>    <chr>    <chr>       <chr>     <dbl>   <dbl> <chr>  <chr> 
     1 204166566 english  2025.08… POS         ❌            0       0 7/10   45848 
     2        NA <NA>     <NA>     <NA>        <NA>         NA      NA <NA>   <NA>  
     3 196362582 english  2025.05… NEG         ✅            0       0 3/10   45726 
     4 194326563 english  2025.04… POS         ❌            0       0 5/10   45787 
     5 184768635 english  2025.00… POS         ❌            0       0 9/10   45910 
     6 168865908 english  2024.06… POS         ✅            0       0 9/10   45910 
     7 162686854 english  2024.03… NEG         ✅            0       0 1/5    45662 
     8 155991617 english  2024.00… NEG         ❌            0       1 3/10   45726 
     9        NA <NA>     <NA>     <NA>        <NA>         NA      NA <NA>   <NA>  
    10        NA <NA>     <NA>     <NA>        <NA>         NA      NA <NA>   <NA>  
    # ℹ 1,107 more rows
    # ℹ 1 more variable: steam_id <dbl>
…
score and upvotes are based on user response to a comment. Users can
upvote for helpfulness of a review, or mark it as funny. I can’t find
data on how exactly the review score is calculated, but I don’t think
these two factors will play a huge role in what I’m looking to do.

``` r
#narrowing the df down to only the columns I want
reviews_df <- reviews_df |>
  select(review_id:review_type, review, steam_id)
reviews_df
```

    # A tibble: 191,109 × 6
       review_id language date             review_type review               steam_id
           <dbl> <chr>    <chr>            <chr>       <chr>                   <dbl>
     1 205434212 english  2025.08.29 02:05 POS         "The atmosphere and…   239200
     2 205407336 english  2025.08.28 19:32 NEG         "Gameplay is lackin…   239200
     3 205265837 english  2025.08.27 00:41 NEG         "So, if you are hop…   239200
     4 205236599 english  2025.08.26 17:29 POS         "Eerie suspenseful …   239200
     5 205099824 english  2025.08.24 14:25 NEG         "just play the 1st …   239200
     6 205035565 english  2025.08.23 19:31 NEG         "This game has good…   239200
     7 205004797 english  2025.08.23 08:34 POS         "Absolute Cinema"      239200
     8 204962454 english  2025.08.22 21:33 POS         "Mostly a walking s…   239200
     9 204909988 english  2025.08.22 03:01 NEG         "I enjoyed the game…   239200
    10 204877346 english  2025.08.21 19:11 NEG         "Wish I could love …   239200
    # ℹ 191,099 more rows

Now, I wanted to verify everything is correct. If every review ID is
unique and I didn’t accidentally duplicate anything, then piping the
review_id column into distinct() should be the exact same dimensions as
the full dataframe.

I had to run some fixes, but it’s all good now!

``` r
reviews_df |>
  distinct(review_id)
```

    # A tibble: 191,109 × 1
       review_id
           <dbl>
     1 205434212
     2 205407336
     3 205265837
     4 205236599
     5 205099824
     6 205035565
     7 205004797
     8 204962454
     9 204909988
    10 204877346
    # ℹ 191,099 more rows
…
Date format as is: 2025.08.29 02:05

- remove timestamp
- reformat
- change column class

``` r
reviews_df <- reviews_df |>
  mutate(date = str_replace_all(date, "(\\d{4})\\.(\\d{2})\\.(\\d{2}).*", "\\1-\\2-\\3"))
reviews_df$date <- as.Date(reviews_df$date)  
  
reviews_df
```

    # A tibble: 191,109 × 6
       review_id language date       review_type review                     steam_id
           <dbl> <chr>    <date>     <chr>       <chr>                         <dbl>
     1 205434212 english  2025-08-29 POS         "The atmosphere and sound…   239200
     2 205407336 english  2025-08-28 NEG         "Gameplay is lacking, sto…   239200
     3 205265837 english  2025-08-27 NEG         "So, if you are hoping fo…   239200
     4 205236599 english  2025-08-26 POS         "Eerie suspenseful horror…   239200
     5 205099824 english  2025-08-24 NEG         "just play the 1st one"      239200
     6 205035565 english  2025-08-23 NEG         "This game has good lore …   239200
     7 205004797 english  2025-08-23 POS         "Absolute Cinema"            239200
     8 204962454 english  2025-08-22 POS         "Mostly a walking simulat…   239200
     9 204909988 english  2025-08-22 NEG         "I enjoyed the game as es…   239200
    10 204877346 english  2025-08-21 NEG         "Wish I could love this g…   239200
    # ℹ 191,099 more rows

## Text Cleaning

``` r
reviews_df |>
  select(review)
```

    # A tibble: 191,109 × 1
       review                                                                       
       <chr>                                                                        
     1 "The atmosphere and sound design are strong, but many core mechanics from Th…
     2 "Gameplay is lacking, story is nothing special. \nOverall meh."              
     3 "So, if you are hoping for an authentic Amnesia experience, this is going to…
     4 "Eerie suspenseful horror game which doesn't resemble other games of the ser…
     5 "just play the 1st one"                                                      
     6 "This game has good lore and scares but my main issue with this game is the …
     7 "Absolute Cinema"                                                            
     8 "Mostly a walking simulator, but there's a few puzzles. There's a few collec…
     9 "I enjoyed the game as essentially a creepy walking simulator with some ligh…
    10 "Wish I could love this game but it crashes at the end of the same level eve…
    # ℹ 191,099 more rows
…
