…
The original numbers are shown here.

``` r
full_df |>
  group_by(steam_id) |>
  summarise(total = n()) |>
  arrange(desc(total))
```

    # A tibble: 45 × 2
       steam_id total
          <dbl> <int>
     1   753640 18607
     2  1049410 16078
     3   481510 14486
     4  1145360 14311
     5   632470 12465
     6    47780 12318
     7   413150 11358
     8  1703340 10527
     9   221040 10525
    10  1119730  9671
    # ℹ 35 more rows
…
``` r
# seed so randomly selected downsampled reviews will be the same
set.seed(1234)

# reviews to be analyzed, sampled proportionally by difference in neg & pos reviews per game
reviews_df <- posreviews |>
  slice_sample(prop=nrow(negreviews)/nrow(posreviews), by=steam_id)

reviews_df <- bind_rows(reviews_df, negreviews)

# a new df, much more manageable in size
reviews_df
```

    # A tibble: 74,844 × 7
       review_id language date       review_type review              steam_id tokens
           <dbl> <chr>    <date>     <chr>       <chr>                  <dbl> <chr> 
     1 105382110 english  2021-11-07 POS         It has a cool stor…   239200 it, h…
     2 139344896 english  2023-05-01 POS         Not as scary or in…   239200 not, …
     3  20463094 english  NA         POS         It is different fr…   239200 it, i…
     4 111691944 english  2022-02-06 POS         You cant even thro…   239200 you, …
     5  13978711 english  NA         POS         I really enjoyed M…   239200 i, re…
     6  41760508 english  2018-03-29 POS         pig                   239200 pig   
     7  11211035 english  2014-06-13 POS         I ALMOST PEED MYSE…   239200 i, al…
     8  18200629 english  2015-08-26 POS         The story is reall…   239200 the, …
     9  36856051 english  2017-10-23 POS         Its Alright, not t…   239200 its, …
    10  97148560 english  2021-07-08 POS         Fun and scary at t…   239200 fun, …
    # ℹ 74,834 more rows
…
### Reviews per game

``` r
revcount_df <- merged_games2 |>
  group_by(game) |>
  summarise(total = n()) |>
  arrange(desc(total))
revcount_df
```

    # A tibble: 45 × 2
       game                              total
       <chr>                             <int>
     1 Outer wilds                       18607
     2 Superliminal                      16078
     3 Night in the Woods                14486
     4 Hades                             14311
     5 Disco Elysium                     12465
     6 Dead Space 2                      12318
     7 Stardew Valley                    11358
     8 The Stanley Parable: Ultra Deluxe 10527
     9 Resident Evil 6                   10525
    10 Ranch Simulator                    9671
    # ℹ 35 more rows
…
Even after adjusting, Positive ranked games are more reviewed than
Negative ones! Some of those games had a 99% ratio of positive reviews,
so even after being proportionally downsampled, there are a lot left!

## Word Count

``` r
reviews_df <- reviews_df |>
  mutate(word_count = str_count(tokens, '\\,')+1)

reviews_df
```

    # A tibble: 74,844 × 8
       review_id language date       review_type review   steam_id tokens word_count
           <dbl> <chr>    <date>     <chr>       <chr>       <dbl> <chr>       <dbl>
     1 105382110 english  2021-11-07 POS         It has …   239200 it, h…         96
     2 139344896 english  2023-05-01 POS         Not as …   239200 not, …         36
     3  20463094 english  NA         POS         It is d…   239200 it, i…         74
     4 111691944 english  2022-02-06 POS         You can…   239200 you, …         17
     5  13978711 english  NA         POS         I reall…   239200 i, re…        170
     6  41760508 english  2018-03-29 POS         pig        239200 pig             1
     7  11211035 english  2014-06-13 POS         I ALMOS…   239200 i, al…          9
     8  18200629 english  2015-08-26 POS         The sto…   239200 the, …        121
     9  36856051 english  2017-10-23 POS         Its Alr…   239200 its, …         18
    10  97148560 english  2021-07-08 POS         Fun and…   239200 fun, …         23
    # ℹ 74,834 more rows
…
    # A tibble: 1 × 2
      review_type total
      <chr>       <int>
    1 POS            17

``` r
reviews_df |>
  filter(word_count==1)
```

    # A tibble: 4,283 × 8
       review_id language date       review_type review   steam_id tokens word_count
           <dbl> <chr>    <date>     <chr>       <chr>       <dbl> <chr>       <dbl>
     1  41760508 english  2018-03-29 POS         pig        239200 pig             1
     2  63250890 english  2020-01-10 POS         yesl       239200 yesl            1
     3  11965806 english  2014-08-03 POS         scary      239200 scary           1
     4 109579105 english  2022-01-05 POS         nice       239200 nice            1
     5 185722507 english  NA         POS         pig        239200 pig             1
     6  42661163 english  2018-05-12 POS         granny     239200 granny          1
     7  41023366 english  2018-02-24 POS         <3         239200 3               1
     8 116029011 english  2022-04-26 POS         Pigopho…   239200 pigop…          1
     9 121846966 english  2022-08-06 POS         Pig        239200 pig             1
    10 124839213 english  2022-10-02 POS         nice       239200 nice            1
    # ℹ 4,273 more rows
…
TTR is very sensitive to document length. Too long, and documents taper
off. There are only so many content words to be used in a document,
eventually the highly repetitive function words will outnumber them.

[source](https://medium.com/@rajeswaridepala/empirical-laws-ttr-cc9f826d304d)

``` r
reviews_df <- reviews_df |>
  mutate(TTR = type_count/word_count)

reviews_df
```

    # A tibble: 74,844 × 11
       review_id language date       review_type review   steam_id tokens word_count
           <dbl> <chr>    <date>     <chr>       <chr>       <dbl> <chr>       <dbl>
     1 105382110 english  2021-11-07 POS         It has …   239200 it, h…         96
     2 139344896 english  2023-05-01 POS         Not as …   239200 not, …         36
     3  20463094 english  NA         POS         It is d…   239200 it, i…         74
     4 111691944 english  2022-02-06 POS         You can…   239200 you, …         17
     5  13978711 english  NA         POS         I reall…   239200 i, re…        170
     6  41760508 english  2018-03-29 POS         pig        239200 pig             1
     7  11211035 english  2014-06-13 POS         I ALMOS…   239200 i, al…          9
     8  18200629 english  2015-08-26 POS         The sto…   239200 the, …        121
     9  36856051 english  2017-10-23 POS         Its Alr…   239200 its, …         18
    10  97148560 english  2021-07-08 POS         Fun and…   239200 fun, …         23
    # ℹ 74,834 more rows
    # ℹ 3 more variables: types <chr>, type_count <dbl>, TTR <dbl>
…
This plot looks crazy, but it still does give some idea of where the
trend begins to plateau, a good sign of where TTR starts to be affected
by the length of the document. At the far end, of course, are those 2000
word reviews that just say “the end is never” over and over again.

Let’s look at reviews in the 300-700 word range to give TTR a good look.

``` r
midlength <- reviews_df |>
  filter(word_count>300, word_count<700)

midlength
```

    # A tibble: 2,277 × 11
       review_id language date       review_type review   steam_id tokens word_count
           <dbl> <chr>    <date>     <chr>       <chr>       <dbl> <chr>       <dbl>
     1    900822 english  2013-08-11 POS         "I'd lo…   239200 i'd, …        514
     2    414556 english  2013-08-20 POS         "Amnesi…   239200 amnes…        318
     3  38339972 english  2017-11-16 POS         "nukes-…   239200 nukes…        653
     4   9909718 english  2014-03-23 POS         "Amnesi…   239200 amnes…        497
     5   7352177 english  2013-09-10 POS         "Well, …   239200 well,…        425
     6  47404462 english  2018-11-09 POS         "Inform…   239200 infor…        668
     7 168318670 english  2024-05-27 POS         "In def…   239200 in, d…        449
     8  11079475 english  2014-06-05 POS         "Whethe…   239200 wheth…        346
     9 186179322 english  NA         POS         "This L…   239200 this,…        405
    10   8310895 english  2013-11-26 POS         "Amnesi…   239200 amnes…        448
    # ℹ 2,267 more rows
    # ℹ 3 more variables: types <chr>, type_count <dbl>, TTR <dbl>
…
tokens_df <- reviews_df |>
  unnest_tokens(word, review) |>
  anti_join(stop_words)
```

    Joining with `by = join_by(word)`

``` r
tokens_df <- tokens_df |>
  count(word, sort = TRUE) 

tokens_df
```

    # A tibble: 67,510 × 2
       word        n
       <chr>   <int>
     1 game   107959
     2 play    15557
     3 story   14330
     4 time    13727
     5 games   12351
     6 fun      9636
     7 10       9062
     8 played   7747
     9 bad      7650
    10 buy      6772
    # ℹ 67,500 more rows
…
``` r
pos_toks <- posrevs |>
  unnest_tokens(word, review) |>
  anti_join(stop_words) |>
  count(word, sort = TRUE)
```

    Joining with `by = join_by(word)`

``` r
pos_toks
```

    # A tibble: 39,009 × 2
       word           n
       <chr>      <int>
     1 game       40918
     2 story       7463
     3 play        6827
     4 10          5782
     5 games       5558
     6 fun         5299
     7 time        5119
     8 love        3819
     9 played      3789
    10 experience  3197
    # ℹ 38,999 more rows
…
``` r
neg_toks <- negrevs |>
  unnest_tokens(word, review) |>
  anti_join(stop_words) |>
  count(word, sort = TRUE)
```

    Joining with `by = join_by(word)`

``` r
neg_toks
```

    # A tibble: 50,260 × 2
       word      n
       <chr> <int>
     1 game  67041
     2 play   8730
     3 time   8608
     4 story  6867
     5 games  6793
     6 bad    6186
     7 buy    5522
     8 money  4455
     9 fun    4337
    10 2      4096
    # ℹ 50,250 more rows
…
Game, play, story, games, fun, and time are in top ten tokens for both
positive and negative reviews. That’s more than half of those top tokens
in common.

### Term Frequencies

``` r
frequency <- tokens_df |>
  mutate(proportion = n / sum(n)) |>
  select(-n)

frequency
```

    # A tibble: 67,510 × 2
       word   proportion
       <chr>       <dbl>
     1 game      0.0632 
     2 play      0.00911
     3 story     0.00839
     4 time      0.00804
     5 games     0.00723
     6 fun       0.00564
     7 10        0.00531
     8 played    0.00454
     9 bad       0.00448
    10 buy       0.00396
    # ℹ 67,500 more rows

This means that 6.3% of all the words in game reviews is the word game.

``` r
posfreq <- pos_toks |>
  mutate(proportion = n / sum(n)) |>
  select(-n)
posfreq
```

    # A tibble: 39,009 × 2
       word       proportion
       <chr>           <dbl>
     1 game          0.0660 
     2 story         0.0120 
     3 play          0.0110 
     4 10            0.00933
     5 games         0.00896
     6 fun           0.00855
     7 time          0.00826
     8 love          0.00616
     9 played        0.00611
    10 experience    0.00516
    # ℹ 38,999 more rows

``` r
negfreq <- neg_toks |>
  mutate(proportion = n / sum(n)) |>
  select(-n)
negfreq
```

    # A tibble: 50,260 × 2
       word  proportion
       <chr>      <dbl>
     1 game     0.0616 
     2 play     0.00802
     3 time     0.00791
     4 story    0.00631
     5 games    0.00624
     6 bad      0.00569
     7 buy      0.00507
     8 money    0.00409
     9 fun      0.00399
    10 2        0.00376
    # ℹ 50,250 more rows
…
freq
```

    # A tibble: 110,000 × 3
       word  review_type proportion
       <chr> <chr>            <dbl>
     1 '     Positive     0.000179 
     2 '     Negative     0.0000199
     3 a     Positive     0.000487 
     4 a     Negative     0.000776 
     5 aa    Positive     0.0000256
     6 aa    Negative     0.0000398
     7 aaa   Positive     0.0000513
     8 aaa   Negative     0.0000199
     9 aaaa  Positive     0.0000256
    10 aaaa  Negative     0.0000199
    # ℹ 109,990 more rows
…
``` r
review_words <- left_join(reviews_df, review_words)
```

    Joining with `by = join_by(review_id)`

``` r
review_words <- review_words |>
  select(review_id, review_type, word, n, total)

review_words
```

    # A tibble: 1,430,815 × 5
       review_id review_type word            n total
           <dbl> <chr>       <chr>       <int> <int>
     1 105382110 POS         hide            2    31
     2 105382110 POS         story           2    31
     3 105382110 POS         4               1    31
     4 105382110 POS         aesthetic       1    31
     5 105382110 POS         basically       1    31
     6 105382110 POS         beat            1    31
     7 105382110 POS         button          1    31
     8 105382110 POS         cool            1    31
     9 105382110 POS         essentially     1    31
    10 105382110 POS         game            1    31
    # ℹ 1,430,805 more rows
…
- which words are the words that define the text?

- what words are common (but not too common)?

``` r
review_tf_idf <- review_words |>
  bind_tf_idf(word, review_id, n)

review_tf_idf
```

    # A tibble: 1,430,815 × 8
       review_id review_type word            n total     tf   idf tf_idf
           <dbl> <chr>       <chr>       <int> <int>  <dbl> <dbl>  <dbl>
     1 105382110 POS         hide            2    31 0.0645 6.17  0.398 
     2 105382110 POS         story           2    31 0.0645 2.06  0.133 
     3 105382110 POS         4               1    31 0.0323 3.47  0.112 
     4 105382110 POS         aesthetic       1    31 0.0323 5.98  0.193 
     5 105382110 POS         basically       1    31 0.0323 4.23  0.136 
     6 105382110 POS         beat            1    31 0.0323 4.55  0.147 
     7 105382110 POS         button          1    31 0.0323 4.76  0.154 
     8 105382110 POS         cool            1    31 0.0323 3.69  0.119 
     9 105382110 POS         essentially     1    31 0.0323 5.41  0.174 
    10 105382110 POS         game            1    31 0.0323 0.529 0.0171
    # ℹ 1,430,805 more rows

with stop words included there are 6,412,302 total rows with stop words
excluded it went down to 3,045,610! After downsampling (and stop words
removed), it’s down to 1,430,815!

``` r
review_tf_idf |>
  arrange(desc(n))
```

    # A tibble: 1,430,815 × 8
       review_id review_type word          n total    tf   idf tf_idf
           <dbl> <chr>       <chr>     <int> <int> <dbl> <dbl>  <dbl>
     1 128455542 POS         stanley     604   604 1      4.59   4.59
     2 100586398 NEG         dogshit     390   390 1      6.71   6.71
     3 107657442 NEG         cum         266   268 0.993  9.28   9.21
     4  76036759 NEG         bad         226   227 0.996  2.60   2.59
     5 202604268 POS         sebastian   180   180 1      8.45   8.45
     6 158033704 POS         nightmare   171   171 1      5.90   5.90
     7 118175250 POS         wake        156   160 0.975  6.12   5.97
     8 101330624 NEG         muito       140   350 0.4    7.82   3.13
     9 117679620 POS         stomp       132   132 1      7.56   7.56
    10  77293859 NEG         crash       128   128 1      4.58   4.58
    # ℹ 1,430,805 more rows

To prep this dataframe for the classifier, let’s narrow down to only the
columns we know we want.

``` r
review_tf_idf <- review_tf_idf |>
  select(review_id, review_type, word, total, tf_idf)

review_tf_idf
```

    # A tibble: 1,430,815 × 5
       review_id review_type word        total tf_idf
           <dbl> <chr>       <chr>       <int>  <dbl>
     1 105382110 POS         hide           31 0.398 
     2 105382110 POS         story          31 0.133 
     3 105382110 POS         4              31 0.112 
     4 105382110 POS         aesthetic      31 0.193 
     5 105382110 POS         basically      31 0.136 
     6 105382110 POS         beat           31 0.147 
     7 105382110 POS         button         31 0.154 
     8 105382110 POS         cool           31 0.119 
     9 105382110 POS         essentially    31 0.174 
    10 105382110 POS         game           31 0.0171
    # ℹ 1,430,805 more rows
…
