…
## Classifier Data

To get another look at the df to be used to train the classifier later.
This is the tf-idf information for the downsampled version of the game
reviews data, stop words removed.

``` r
review_tf_idf <- read_csv("../private/reviews_tfidf.csv", show_col_types = FALSE)

review_tf_idf
```

    # A tibble: 1,241,994 × 5
       review_id review_type word          total tf_idf
           <dbl> <chr>       <chr>         <dbl>  <dbl>
     1 105382110 POS         hide             25  0.493
     2 105382110 POS         aesthetic        25  0.239
     3 105382110 POS         basically        25  0.169
     4 105382110 POS         beat             25  0.182
     5 105382110 POS         button           25  0.191
     6 105382110 POS         cool             25  0.148
     7 105382110 POS         essentially      25  0.216
     8 105382110 POS         haunted          25  0.283
     9 105382110 POS         house            25  0.197
    10 105382110 POS         interactivity    25  0.283
    # ℹ 1,241,984 more rows
…
``` r
set.seed(14)
setup_sample <- reviews_shortened |>
  group_by(review_type) |>
  slice_sample(n = 10000)

setup_sample <-setup_sample |>
  rename(WC=total)
  
setup_sample
```

    # A tibble: 20,000 × 5
    # Groups:   review_type [2]
       review_id review_type word          WC tf_idf
           <dbl> <chr>       <chr>      <dbl>  <dbl>
     1 186153668 NEG         crash        179 0.0256
     2 129898197 NEG         stanley       34 0.135 
     3 143230050 NEG         complete      34 0.113 
     4 102010748 NEG         birkin        27 0.321 
     5   7748613 NEG         standalone   127 0.0573
     6  33441116 NEG         switched     164 0.0436
     7 193049277 NEG         review        47 0.0726
     8  15232499 NEG         force        114 0.0467
     9 183653186 NEG         refunded      10 0.557 
    10  10773061 NEG         bought        38 0.0936
    # ℹ 19,990 more rows
…
